<svg width="85" height="42" viewBox="0 0 85 42" fill="none" xmlns="http://www.w3.org/2000/svg">
<path d="M2.98033 32V10.1818H5.62237V29.6562H15.7644V32H2.98033ZM37.5148 21.0909C37.5148 23.392 37.0993 25.3807 36.2684 27.0568C35.4374 28.733 34.2975 30.0256 32.8486 30.9347C31.3998 31.8438 29.7449 32.2983 27.8841 32.2983C26.0233 32.2983 24.3685 31.8438 22.9196 30.9347C21.4708 30.0256 20.3309 28.733 19.4999 27.0568C18.6689 25.3807 18.2534 23.392 18.2534 21.0909C18.2534 18.7898 18.6689 16.8011 19.4999 15.125C20.3309 13.4489 21.4708 12.1562 22.9196 11.2472C24.3685 10.3381 26.0233 9.88352 27.8841 9.88352C29.7449 9.88352 31.3998 10.3381 32.8486 11.2472C34.2975 12.1562 35.4374 13.4489 36.2684 15.125C37.0993 16.8011 37.5148 18.7898 37.5148 21.0909ZM34.958 21.0909C34.958 19.2017 34.6419 17.6072 34.0098 16.3075C33.3848 15.0078 32.5361 14.0241 31.4637 13.3565C30.3983 12.6889 29.2051 12.3551 27.8841 12.3551C26.5631 12.3551 25.3664 12.6889 24.2939 13.3565C23.2286 14.0241 22.3799 15.0078 21.7478 16.3075C21.1228 17.6072 20.8103 19.2017 20.8103 21.0909C20.8103 22.9801 21.1228 24.5746 21.7478 25.8743C22.3799 27.174 23.2286 28.1577 24.2939 28.8253C25.3664 29.4929 26.5631 29.8267 27.8841 29.8267C29.2051 29.8267 30.3983 29.4929 31.4637 28.8253C32.5361 28.1577 33.3848 27.174 34.0098 25.8743C34.6419 24.5746 34.958 22.9801 34.958 21.0909ZM56.9721 17C56.7377 16.2827 56.4287 15.6399 56.0452 15.0717C55.6688 14.4964 55.2178 14.0064 54.6922 13.6016C54.1738 13.1967 53.5843 12.8878 52.9238 12.6747C52.2632 12.4616 51.5388 12.3551 50.7505 12.3551C49.4578 12.3551 48.2824 12.6889 47.2242 13.3565C46.1659 14.0241 45.3243 15.0078 44.6993 16.3075C44.0743 17.6072 43.7618 19.2017 43.7618 21.0909C43.7618 22.9801 44.0779 24.5746 44.71 25.8743C45.3421 27.174 46.1979 28.1577 47.2774 28.8253C48.357 29.4929 49.5715 29.8267 50.9209 29.8267C52.1709 29.8267 53.2718 29.5604 54.2235 29.0277C55.1823 28.4879 55.928 27.728 56.4607 26.7479C57.0005 25.7607 57.2703 24.5994 57.2703 23.2642L58.08 23.4347H51.5175V21.0909H59.8272V23.4347C59.8272 25.2315 59.4436 26.794 58.6766 28.1222C57.9167 29.4503 56.8655 30.4801 55.5232 31.2116C54.188 31.9361 52.6539 32.2983 50.9209 32.2983C48.9891 32.2983 47.2917 31.8438 45.8286 30.9347C44.3726 30.0256 43.2363 28.733 42.4195 27.0568C41.6098 25.3807 41.205 23.392 41.205 21.0909C41.205 19.3651 41.4358 17.8132 41.8975 16.4354C42.3662 15.0504 43.0267 13.8714 43.879 12.8984C44.7313 11.9254 45.7398 11.1797 46.9046 10.6612C48.0694 10.1428 49.3513 9.88352 50.7505 9.88352C51.901 9.88352 52.9735 10.0575 53.9678 10.4055C54.9692 10.7464 55.8605 11.233 56.6418 11.8651C57.4301 12.4901 58.0871 13.2393 58.6127 14.1129C59.1382 14.9794 59.5005 15.9418 59.6993 17H56.9721ZM82.8613 21.0909C82.8613 23.392 82.4458 25.3807 81.6148 27.0568C80.7839 28.733 79.644 30.0256 78.1951 30.9347C76.7462 31.8438 75.0914 32.2983 73.2306 32.2983C71.3698 32.2983 69.715 31.8438 68.2661 30.9347C66.8173 30.0256 65.6773 28.733 64.8464 27.0568C64.0154 25.3807 63.5999 23.392 63.5999 21.0909C63.5999 18.7898 64.0154 16.8011 64.8464 15.125C65.6773 13.4489 66.8173 12.1562 68.2661 11.2472C69.715 10.3381 71.3698 9.88352 73.2306 9.88352C75.0914 9.88352 76.7462 10.3381 78.1951 11.2472C79.644 12.1562 80.7839 13.4489 81.6148 15.125C82.4458 16.8011 82.8613 18.7898 82.8613 21.0909ZM80.3045 21.0909C80.3045 19.2017 79.9884 17.6072 79.3563 16.3075C78.7313 15.0078 77.8826 14.0241 76.8102 13.3565C75.7448 12.6889 74.5516 12.3551 73.2306 12.3551C71.9096 12.3551 70.7129 12.6889 69.6404 13.3565C68.5751 14.0241 67.7263 15.0078 67.0942 16.3075C66.4692 17.6072 66.1567 19.2017 66.1567 21.0909C66.1567 22.9801 66.4692 24.5746 67.0942 25.8743C67.7263 27.174 68.5751 28.1577 69.6404 28.8253C70.7129 29.4929 71.9096 29.8267 73.2306 29.8267C74.5516 29.8267 75.7448 29.4929 76.8102 28.8253C77.8826 28.1577 78.7313 27.174 79.3563 25.8743C79.9884 24.5746 80.3045 22.9801 80.3045 21.0909Z" fill="black"/>
<rect width="85" height="2" fill="black"/>
<rect y="40" width="85" height="2" fill="black"/>
</svg>
